Siesta Version:                                        siesta-2.6.21
Architecture  : gfortran-nolibs-netcdf
Compiler flags: gfortran -O0
SERIAL version
NetCDF-capable

* Running in serial mode
>> Start of run:  19-MAY-2009  17:56:21

                           ***********************       
                           *  WELCOME TO SIESTA  *       
                           ***********************       

reinit: Reading from standard input
************************** Dump of input data file ****************************
SystemName          H2 molecule
SystemLabel         h2
NumberOfAtoms       2
NumberOfSpecies     1
%block ChemicalSpeciesLabel
 1  1  H
%endblock ChemicalSpeciesLabel
AtomicCoordinatesFormat  Ang
%block AtomicCoordinatesAndAtomicSpecies
 0.000  0.000  0.000  1
 1.100  0.000  0.000  1
%endblock AtomicCoordinatesAndAtomicSpecies
DM.NumberPulay 3
************************** End of input data file *****************************

reinit: -----------------------------------------------------------------------
reinit: System Name: H2 molecule
reinit: -----------------------------------------------------------------------
reinit: System Label: h2                                                          
reinit: -----------------------------------------------------------------------

initatom: Reading input for the pseudopotentials and atomic orbitals ----------
 Species number:            1  Label: H Atomic number:           1
Ground state valence configuration:   1s01
Reading pseudopotential information in formatted form from H.psf

Valence configuration for pseudopotential generation:
1s( 1.00) rc: 1.25
2p( 0.00) rc: 1.25
3d( 0.00) rc: 1.25
4f( 0.00) rc: 1.25
For H, standard SIESTA heuristics set lmxkb to 2
 (one more than the basis l, including polarization orbitals).
Use PS.lmax or PS.KBprojectors blocks to override.

<basis_specs>
===============================================================================
H                    Z=   1    Mass=  1.0100        Charge= 0.17977+309
Lmxo=0 Lmxkb=2     BasisType=split      Semic=F
L=0  Nsemic=0  Cnfigmx=1
          n=1  nzeta=2  polorb=1
            splnorm:   0.15000    
               vcte:    0.0000    
               rinn:    0.0000    
                rcs:    0.0000      0.0000    
            lambdas:    1.0000      1.0000    
-------------------------------------------------------------------------------
L=0  Nkbl=1  erefs: 0.17977+309
L=1  Nkbl=1  erefs: 0.17977+309
L=2  Nkbl=1  erefs: 0.17977+309
===============================================================================
</basis_specs>

atom: Called for H                     (Z =   1)

read_vps: Pseudopotential generation method:
read_vps: ATM3      Troullier-Martins                       
Total valence charge:    1.00000

xc_check: Exchange-correlation functional:
xc_check: Ceperley-Alder
V l=0 = -2*Zval/r beyond r=  1.2343
V l=1 = -2*Zval/r beyond r=  1.2189
V l=2 = -2*Zval/r beyond r=  1.2189
All V_l potentials equal beyond r=  1.2343
This should be close to max(r_c) in ps generation
All pots = -2*Zval/r beyond r=  1.2343

VLOCAL1: 99.0% of the norm of Vloc inside     28.493 Ry
VLOCAL1: 99.9% of the norm of Vloc inside     64.935 Ry
atom: Maximum radius for 4*pi*r*r*local-pseudopot. charge    1.45251
atom: Maximum radius for r*vlocal+2*Zval:    1.21892
GHOST: No ghost state for L =  0
GHOST: No ghost state for L =  1
GHOST: No ghost state for L =  2

KBgen: Kleinman-Bylander projectors: 
   l= 0   rc=  1.364359   el= -0.467325   Ekb= -2.005361   kbcos= -0.336422
   l= 1   rc=  1.434438   el=  0.001430   Ekb= -0.501708   kbcos= -0.021697
   l= 2   rc=  1.470814   el=  0.002365   Ekb= -0.190555   kbcos= -0.002281

KBgen: Total number of  Kleinman-Bylander projectors:    9
atom: -------------------------------------------------------------------------

atom: SANKEY-TYPE ORBITALS:
atom: Selected multiple-zeta basis: split     

SPLIT: Orbitals with angular momentum L= 0

SPLIT: Basis orbitals for state 1s

SPLIT: PAO cut-off radius determined from an
SPLIT: energy shift=  0.020000 Ry

   izeta = 1
                 lambda =    1.000000
                     rc =    4.828263
                 energy =   -0.449375
                kinetic =    0.929372
    potential(screened) =   -1.378747
       potential(ionic) =   -1.915047

   izeta = 2
                 rmatch =    3.854947
              splitnorm =    0.150000
                 energy =   -0.336153
                kinetic =    1.505294
    potential(screened) =   -1.841447
       potential(ionic) =   -2.413582

POLgen: Perturbative polarization orbital with L=  1

POLgen: Polarization orbital for state 1s

   izeta = 1
                     rc =    4.828263
                 energy =    0.706972
                kinetic =    1.396397
    potential(screened) =   -0.689424
       potential(ionic) =   -1.169792
atom: Total number of Sankey-type orbitals:  5

atm_pop: Valence configuration (for local Pseudopot. screening):
 1s( 1.00)                                                            
Vna: chval, zval:    1.00000   1.00000

Vna:  Cut-off radius for the neutral-atom potential:   4.828263

atom: _________________________________________________________________________

prinput: Basis input ----------------------------------------------------------

PAO.BasisType split     

%block ChemicalSpeciesLabel
    1    1 H                       # Species index, atomic number, species label
%endblock ChemicalSpeciesLabel

%block PAO.Basis                 # Define Basis set
H                     1                    # Species label, number of l-shells
 n=1   0   2 P   1                   # n, l, Nzeta, Polarization, NzetaPol
   4.828      3.855   
   1.000      1.000   
%endblock PAO.Basis

prinput: ----------------------------------------------------------------------

Dumping basis to NetCDF file H.ion.nc
coor:   Atomic-coordinates input format  =     Cartesian coordinates
coor:                                          (in Angstroms)

siesta: Atomic coordinates (Bohr) and species
siesta:      0.00000   0.00000   0.00000  1        1
siesta:      2.07870   0.00000   0.00000  1        2

siesta: Automatic unit cell vectors (Ang):
siesta:    6.831012    0.000000    0.000000
siesta:    0.000000    5.621012    0.000000
siesta:    0.000000    0.000000    5.621012

siesta: System type = molecule  

initatomlists: Number of atoms, orbitals, and projectors:      2    10    18

siesta: ******************** Simulation parameters ****************************
siesta:
siesta: The following are some of the parameters of the simulation.
siesta: A complete list of the parameters used, including default values,
siesta: can be found in file out.fdf
siesta:
redata: Non-Collinear-spin run           =     F
redata: SpinPolarized (Up/Down) run      =     F
redata: Number of spin components        =     1
redata: Long output                      =     F
redata: Maximum wall-clock time          = unlimited
redata: Number of Atomic Species         =        1
redata: Charge density info will appear in .RHO file
redata: Write Mulliken Pop.              =     NO
redata: Mesh Cutoff                      =   100.0000  Ry
redata: Net charge of the system         =     0.0000 |e|
redata: Max. number of SCF Iter          =       50
redata: Performing Pulay mixing using    =     3 iterations
redata: Mix DM in first SCF step ?       =     F
redata: Write Pulay info on disk?        =     F
redata: New DM Mixing Weight             =     0.2500
redata: New DM Occupancy tolerance       = 0.000000000001
redata: No kicks to SCF
redata: DM Mixing Weight for Kicks       =     0.5000
redata: DM Tolerance for SCF             =     0.000100
redata: Require Energy convergence for SCF =     F
redata: DM Energy tolerance for SCF      =     0.000100 eV
redata: Require Harris convergence for SCF =     F
redata: DM Harris energy tolerance for SCF =     0.000100 eV
redata: Using Saved Data (generic)   =     F
redata: Use continuation files for DM    =     F
redata: Neglect nonoverlap interactions  =     F
redata: Method of Calculation            =     Diagonalization
redata: Divide and Conquer               =     T
redata: Electronic Temperature           =     0.0019  Ry
redata: Fix the spin of the system       =     F
redata: Dynamics option                  =     Verlet MD run
redata: Initial MD time step             =        1
redata:   Final MD time step             =        1
redata: Length of MD time step           =     1.0000  fs
redata: Initial Temperature of MD run    =     0.0000  K
redata: Perform a MD quench              =     F
redata: ***********************************************************************
Total number of electrons:     2.000000
Total ionic charge:     2.000000
 Kpoints in:            1 . Kpoints trimmed:            1

siesta: k-grid: Number of k-points =     1
siesta: k-grid: Cutoff (effective) =     2.811 Ang
siesta: k-grid: Supercell and displacements
siesta: k-grid:    1   0   0      0.000
siesta: k-grid:    0   1   0      0.000
siesta: k-grid:    0   0   1      0.000

* Maximum dynamic memory allocated =     1 MB

siesta:                 ==============================
                            Begin MD step =      1
                        ==============================

outcell: Unit cell vectors (Ang):
        6.831012    0.000000    0.000000
        0.000000    5.621012    0.000000
        0.000000    0.000000    5.621012

outcell: Cell vector modules (Ang)   :    6.831012    5.621012    5.621012
outcell: Cell angles (23,13,12) (deg):     90.0000     90.0000     90.0000
outcell: Cell volume (Ang**3)        :    215.8312
New_DM. Step:     1
Initializing Density Matrix...

InitMesh: MESH =    48 x    36 x    36 =       62208
InitMesh: Mesh cutoff (required, used) =   100.000   113.365 Ry
-- Node    1 :       62208      1:  48   1:  36   1:  36

* Maximum dynamic memory allocated =     4 MB

stepf: Fermi-Dirac step function

siesta: Program's energy decomposition (eV):
siesta: Eions   =        39.414643
siesta: Ena     =        10.319668
siesta: Ekin    =        25.287126
siesta: Enl     =        -7.001233
siesta: DEna    =         0.000000
siesta: DUscf   =         0.000000
siesta: DUext   =         0.000000
siesta: Exc     =       -14.655372
siesta: eta*DQ  =         0.000000
siesta: Emadel  =         0.000000
siesta: Emeta   =         0.000000
siesta: Emolmec =         0.000000
siesta: Ekinion =         0.000000
siesta: Eharris =       -29.794155
siesta: Etot    =       -25.464454
siesta: FreeEng =       -25.464454

siesta: iscf   Eharris(eV)      E_KS(eV)   FreeEng(eV)   dDmax  Ef(eV)
siesta:    1      -29.7942      -25.4645      -25.4645  0.7216 -2.5689
timer: Routine,Calls,Time,% = IterSCF        1       0.502  64.94
elaps: Routine,Calls,Wall,% = IterSCF        1       0.503  64.82
siesta:    2      -29.6746      -29.6447      -29.6447  0.0714 -1.1856
siesta:    3      -29.6704      -29.4183      -29.4183  0.0630 -1.3373
siesta:    4      -29.6696      -29.6702      -29.6702  0.0006 -1.4300
siesta:    5      -29.6696      -29.6689      -29.6689  0.0002 -1.4316
siesta:    6      -29.6696      -29.6686      -29.6686  0.0001 -1.4321
siesta:    7      -29.6696      -29.6689      -29.6689  0.0001 -1.4324

siesta: E_KS(eV) =              -29.6691

siesta: E_KS - E_eggbox =       -29.6691

siesta: Atomic forces (eV/Ang):
----------------------------------------
   Tot   -0.006826    0.000000   -0.000000
----------------------------------------
   Max    4.288083
   Res    2.473756    sqrt( Sum f_i^2 / 3N )
----------------------------------------
   Max    4.288083    constrained

Stress-tensor-Voigt (kbar):       35.00       -0.01       -0.01        0.00       -0.00        0.00
(Free)E + p*V (eV/cell)      -31.2399
Target enthalpy (eV/cell)      -29.6691

siesta: Stress tensor (static) (eV/Ang**3):
         0.021845    0.000000    0.000000
         0.000000   -0.000006   -0.000000
         0.000000   -0.000000   -0.000006

siesta: Pressure (static):        -11.66020999  kBar

siesta: Stress tensor (total) (eV/Ang**3):
         0.021845    0.000000    0.000000
         0.000000   -0.000006   -0.000000
         0.000000   -0.000000   -0.000006

siesta: Pressure (total):        -11.66020999  kBar

siesta: Temp_ion =       0.000 K

* Maximum dynamic memory allocated =     4 MB

siesta: Program's energy decomposition (eV):
siesta: Eions   =        39.414643
siesta: Ena     =        10.319668
siesta: Ekin    =        23.346030
siesta: Enl     =        -7.216303
siesta: DEna    =        -1.222079
siesta: DUscf   =         0.235991
siesta: DUext   =         0.000000
siesta: Exc     =       -15.717796
siesta: eta*DQ  =         0.000000
siesta: Emadel  =         0.000000
siesta: Emeta   =         0.000000
siesta: Emolmec =         0.000000
siesta: Ekinion =         0.000000
siesta: Eharris =       -29.669621
siesta: Etot    =       -29.669132
siesta: FreeEng =       -29.669132

siesta: Final energy (eV):
siesta:       Kinetic =      23.346030
siesta:       Hartree =      17.489632
siesta:    Ext. field =       0.000000
siesta:   Exch.-corr. =     -15.717796
siesta:  Ion-electron =     -54.978676
siesta:       Ion-ion =       0.191677
siesta:       Ekinion =       0.000000
siesta:         Total =     -29.669132

siesta: Atomic forces (eV/Ang):
siesta:      1    4.281257    0.000000    0.000000
siesta:      2   -4.288083   -0.000000   -0.000000
siesta: ----------------------------------------
siesta:    Tot   -0.006826    0.000000   -0.000000

siesta: Stress tensor (static) (eV/Ang**3):
siesta:     0.021845    0.000000    0.000000
siesta:     0.000000   -0.000006   -0.000000
siesta:     0.000000   -0.000000   -0.000006

siesta: Cell volume =        215.831173 Ang**3

siesta: Pressure (static):
siesta:                Solid            Molecule  Units
siesta:          -0.00007926          0.00000002  Ry/Bohr**3
siesta:          -0.00727765          0.00000140  eV/Ang**3
siesta:         -11.66020999          0.00223779  kBar
(Free)E+ p_basis*V_orbitals  =         -29.231507
(Free)Eharris+ p_basis*V_orbitals  =         -29.232233

siesta: Electric dipole (a.u.)  =   -0.000089   -0.000000   -0.000000
siesta: Electric dipole (Debye) =   -0.000227   -0.000000   -0.000000

* Maximum dynamic memory allocated : Node    0 =     4 MB

* Maximum memory occured during poison                        

timer: CPU execution times:
timer:  Routine       Calls   Time/call    Tot.time        %
timer:  siesta            1       1.732       1.732   100.00
timer:  Setup             1       0.225       0.225    13.01
timer:  bands             1       0.000       0.000     0.01
timer:  writewave         1       0.001       0.001     0.05
timer:  KSV_init          1       0.000       0.000     0.01
timer:  IterMD            1       1.502       1.502    86.68
timer:  hsparse           1       0.001       0.001     0.06
timer:  overlap           1       0.042       0.042     2.43
timer:  IterSCF           7       0.167       1.170    67.53
timer:  kinefsm           2       0.018       0.035     2.02
timer:  nlefsm            2       0.065       0.130     7.51
timer:  DHSCF             8       0.159       1.273    73.51
timer:  DHSCF1            1       0.071       0.071     4.08
timer:  DHSCF2            1       0.150       0.150     8.67
timer:  REORD            66       0.001       0.056     3.25
timer:  POISON            9       0.026       0.233    13.43
timer:  DHSCF3            8       0.109       0.873    50.37
timer:  rhoofd            8       0.024       0.192    11.11
timer:  cellXC            8       0.026       0.211    12.19
timer:  vmat              8       0.015       0.119     6.88
timer:  MolMec            2       0.000       0.000     0.00
timer:  diagon            7       0.000       0.003     0.15
timer:  r-eigvec          7       0.000       0.002     0.11
timer:  r-buildHS         7       0.000       0.000     0.00
timer:  rdiag             7       0.000       0.002     0.10
timer:  rdiag1            7       0.000       0.000     0.01
timer:  rdiag2            7       0.000       0.000     0.01
timer:  rdiag3            7       0.000       0.001     0.03
timer:  rdiag4            7       0.000       0.000     0.01
timer:  r-buildD          7       0.000       0.000     0.00
timer:  DHSCF4            1       0.169       0.169     9.76
timer:  dfscf             1       0.147       0.147     8.49
timer:  overfsm           1       0.000       0.000     0.01
timer:  optical           1       0.000       0.000     0.01
  

elaps: ELAPSED times:
elaps:  Routine       Calls   Time/call    Tot.time        %
elaps:  siesta            1       1.739       1.739    99.94
elaps:  Setup             1       0.228       0.228    13.10
elaps:  bands             1       0.000       0.000     0.00
elaps:  writewave         1       0.001       0.001     0.06
elaps:  KSV_init          1       0.000       0.000     0.00
elaps:  IterMD            1       1.506       1.506    86.55
elaps:  hsparse           1       0.001       0.001     0.06
elaps:  overlap           1       0.043       0.043     2.47
elaps:  IterSCF           7       0.168       1.174    67.47
elaps:  kinefsm           2       0.017       0.035     2.01
elaps:  nlefsm            2       0.065       0.130     7.47
elaps:  DHSCF             8       0.160       1.278    73.45
elaps:  DHSCF1            1       0.071       0.071     4.08
elaps:  DHSCF2            1       0.151       0.151     8.68
elaps:  REORD            66       0.001       0.055     3.16
elaps:  POISON            9       0.026       0.234    13.45
elaps:  DHSCF3            8       0.109       0.876    50.34
elaps:  rhoofd            8       0.024       0.193    11.09
elaps:  cellXC            8       0.026       0.212    12.18
elaps:  vmat              8       0.015       0.120     6.90
elaps:  MolMec            2       0.000       0.000     0.00
elaps:  diagon            7       0.001       0.005     0.29
elaps:  r-eigvec          7       0.001       0.004     0.23
elaps:  r-buildHS         7       0.000       0.000     0.00
elaps:  rdiag             7       0.000       0.003     0.17
elaps:  rdiag1            7       0.000       0.001     0.06
elaps:  rdiag2            7       0.000       0.000     0.00
elaps:  rdiag3            7       0.000       0.001     0.06
elaps:  rdiag4            7       0.000       0.001     0.06
elaps:  r-buildD          7       0.000       0.000     0.00
elaps:  DHSCF4            1       0.169       0.169     9.71
elaps:  dfscf             1       0.147       0.147     8.45
elaps:  overfsm           1       0.000       0.000     0.00
elaps:  optical           1       0.000       0.000     0.00
  
>> End of run:  19-MAY-2009  17:56:23
